﻿PP69,50
PM "HC1.PCX"
PP479,50
PM "HC2.PCX"

PP39,26:PX1170,768,4
PP128,1194:DIR2
PL1167,2
PP216,1194:PL1167,2
PP455,1194:PL1167,2
PP543,1194:PL1167,2
PP631,872:PL846,2
PP719,1194:PL1167,2
PP39,350:DIR1
PL767,3
PP545,872:PL177,3
PP367,1192:DIR2
PL1167,2

DIR4
NASC 8
AN7

PP219,370:FT "HelveticaBoldVU",18,0,{FontScale}
PT "{ProductName}"

FT "HelveticaBoldVU"
FONTSIZE 18
FONTSLANT 0
PP552,370:PT "{ProductLot}"

FONTSIZE 12
PP65,370
PT "{CompanyName}"
PP149,370:PT "{DeliveryDate}"
PP652,370:PT "{Weight}"
PP740,370:PT "{Executor}"

FONTSIZE 15
PP379,370:PT "{PackageSize}{UOM}"
PP379,677:PT "/"
PP379,766:PT "{ProductPacking}"
PP468,370:PT "{ManufacturingDate}"
PP468,677:PT "/"
PP468,766:PT "{ExpiryDate}"

PP707,1138:AN7:DIR3
FONTSIZE 7
PT "{CartonBarcode}"

PP559,960:DIR4
BARSET "QRCODE",1,1,7,2,1
PB "{CartonBarcode}"

PF
