﻿PP75,35
PM "SP1.PCX"
PP183,553
PM "SP2.PCX"

AN1
DIR1
PP270,494:PL519,2
PP271,683:PL519,2
PP270,27:PX771,523,4
DIR2
PP390,798:PL769,2
PP457,798:PL769,2
PP523,798:PL769,2
PP590,798:PL768,2
PP657,798:PL769,2
PP723,798:PL768,2

DIR4
NASC 8
FT "HelveticaBoldVU",14,0,80
PP448,52:PT "{ProductName1}"
PP515,52:PT "{ProductName2}"
PP581,52:PT "{ProductName3}"
PP648,52:PT "{ProductName4}"
PP715,52:PT "{ProductName5}"
PP781,52:PT "{ProductName6}"

FT "HelveticaBoldVU",14,0,80
PP448,504:PT "{ProductLot1}"
PP515,504:PT "{ProductLot2}"
PP581,504:PT "{ProductLot3}"
PP648,504:PT "{ProductLot4}"
PP715,504:PT "{ProductLot5}"
PP781,504:PT "{ProductLot6}"

FT "HelveticaBoldVU",14,0,100
PP448,705:PT "{Qty1}"
PP515,705:PT "{Qty2}"
PP581,705:PT "{Qty3}"
PP648,705:PT "{Qty4}"
PP715,705:PT "{Qty5}"
PP781,705:PT "{Qty6}"

FT "HelveticaBoldVU",14,0,100
PP115,312:PT "{CompanyName}"
PP790,835:PT "{Executor}"

FT "HelveticaBoldVU",12,0,100
PP516,900:PT "{CartonBarcode}"

FT "HelveticaBoldVU",20,0,100
PP152,312:AN7
PT "{DeliveryDate}"
PP152,1040
PT "{Weight}"

PP295,924:BARSET "QRCODE",1,1,7,2,1
PB "{CartonBarcode}"

PF
