﻿PP65,50
PM "NDG1.PCX"
PP429,50
PM "NDG2.PCX"

PP568,872:DIR2
PL845,2
PP647,872:PL845,2
PP489,872:DIR1
PL239,2
PP39,26:PX1170,768,4
PP39,350:PL767,2
PP120,1194:DIR2
PL1167,2
PP200,1194:PL1167,2
PP330,1194:PL1167,2
PP409,1194:PL1167,2
PP488,1194:PL1167,2
PP727,1194:PL1167,2

DIR4
NASC 8
AN7

PP232,370:FT "HelveticaBoldVU",18,0,{FontScale}
PT "{ProductName}"


FT "HelveticaBoldVU"
FONTSIZE 18
PP491,370:PT "{ProductLot}"

FONTSIZE 12
FONTSLANT 0
PP61,370:PT ""
PP136,370:PT ""
PP583,370:PT ""
PP662,370:PT ""
PP743,370:PT ""

FONTSIZE 15
PP341,370:PT "{PackageSize}{UOM}"
PP341,677:PT "/"
PP341,766:PT "{ProductPacking}"
PP417,370:PT "{ManufacturingDate}"
PP417,677:PT "/"
PP417,766:PT "{ExpiryDate}"

PP682,1139:AN7:DIR3
FONTSIZE 7
PT "{CartonBarcode}"

PP535,957:AN7:DIR4
BARSET "QRCODE",1,1,7,2,1
PB "{CartonBarcode}"

PF
